{
    "name": "afrit",
    "creatureType": "imp",
    "groups": [
        "inferno"
    ],
    "entityClass": "com.lycanitesmobs.core.entity.creature.EntityAfrit",
    "modelClass": "com.lycanitesmobs.client.model.creature.ModelAfrit",
    "loadDefault": true,
    "enabled": true,
    "spawning": {
        "enabled": true,
        "spawners": [
            "lava"
        ],
        "disableSubspecies": false,
        "dimensionIds": [],
        "dimensionListType": "blacklist",
        "ignoreBiome": false,
        "biomeTags": [
            "all"
        ],
        "spawnWeight": 8,
        "dungeonWeight": 200,
        "spawnAreaLimit": 2,
        "spawnGroupMin": 1,
        "spawnGroupMax": 3,
        "spawnsInLight": false,
        "spawnsInDark": true,
        "worldDayMin": -1,
        "despawnNatural": true,
        "despawnForced": false
    },
    "width": 0.8,
    "height": 0.9,
    "experience": 5,
    "health": 10,
    "defense": 0,
    "armor": 0,
    "speed": 28,
    "damage": 1,
    "attackSpeed": 1,
    "rangedSpeed": 0.25,
    "effectDuration": 5,
    "effectAmplifier": 0,
    "pierce": 1,
    "sight": 24,
    "knockbackResistance": 0,
    "eggBackColor": "#110000",
    "eggForeColor": "#773300",
    "subspecies": [
        {
            "index": 0,
            "variants": [
                {
                    "index": 1,
                    "name": "violet",
                    "type": "uncommon"
                },
                {
                    "index": 2,
                    "name": "scarlet",
                    "type": "uncommon"
                }
            ]
        }
    ],
    "elements": [
        "fire"
    ],
    "diets": [
        "carnivore",
        "piscivore",
        "insectivore"
    ],
    "peaceful": false,
    "summonable": false,
    "tameable": true,
    "mountable": false,
    "perchable": true,
    "summonCost": 2,
    "dungeonLevel": 1,
    "drops": [
        {
            "item": "minecraft:coal",
            "minAmount": 1,
            "maxAmount": 3,
            "chance": 1
        },
        {
            "item": "minecraft:blaze_rod",
            "minAmount": 1,
            "maxAmount": 2,
            "chance": 0.25
        },
        {
            "item": "lycanitesmobs:scorchfireballcharge",
            "minAmount": 1,
            "maxAmount": 3,
            "chance": 1
        }
    ],
    "sizeScale": 1,
    "hitboxScale": 1
}