{
    "name": "aspid",
    "creatureType": "reptile",
    "groups": [
        "animal"
    ],
    "entityClass": "com.lycanitesmobs.core.entity.creature.EntityAspid",
    "modelClass": "com.lycanitesmobs.client.model.creature.ModelAspid",
    "loadDefault": true,
    "enabled": true,
    "spawning": {
        "enabled": true,
        "spawners": [
            "land_animal"
        ],
        "disableSubspecies": false,
        "dimensionIds": [
            "minecraft:the_nether",
            "minecraft:the_end"
        ],
        "dimensionListType": "blacklist",
        "ignoreBiome": false,
        "biomeTags": [
            "swamp",
            "spooky",
            "mushroom"
        ],
        "spawnWeight": 16,
        "dungeonWeight": 0,
        "spawnAreaLimit": 5,
        "spawnGroupMin": 1,
        "spawnGroupMax": 3,
        "spawnsInLight": true,
        "spawnsInDark": false,
        "worldDayMin": -1,
        "despawnNatural": false,
        "despawnForced": false
    },
    "width": 0.9,
    "height": 2.2,
    "experience": 10,
    "health": 10,
    "defense": 2,
    "armor": 0,
    "speed": 32,
    "damage": 2,
    "attackSpeed": 1,
    "rangedSpeed": 1,
    "effectDuration": 5,
    "effectAmplifier": 0,
    "pierce": 1,
    "sight": 24,
    "knockbackResistance": 0.25,
    "eggBackColor": "#009944",
    "eggForeColor": "#446600",
    "subspecies": [
        {
            "index": 0,
            "variants": [
                {
                    "index": 1,
                    "name": "dark",
                    "type": "uncommon"
                },
                {
                    "index": 2,
                    "name": "violet",
                    "type": "uncommon"
                }
            ]
        }
    ],
    "element": "poison",
    "diets": [
        "fungivore"
    ],
    "peaceful": true,
    "farmable": true,
    "summonable": false,
    "tameable": false,
    "mountable": false,
    "summonCost": 2,
    "dungeonLevel": 0,
    "drops": [
        {
            "item": "minecraft:slime_ball",
            "minAmount": 1,
            "maxAmount": 3,
            "chance": 1
        },
        {
            "item": "lycanitesmobs:raw_aspid_meat",
            "burningItem": "lycanitesmobs:cooked_aspid_meat",
            "minAmount": 1,
            "maxAmount": 3,
            "chance": 1
        },
        {
            "item": "lycanitesmobs:poisongland",
            "minAmount": 1,
            "maxAmount": 2,
            "chance": 0.25
        }
    ],
    "sizeScale": 1,
    "hitboxScale": 1
}