{
	"name": "sky",
	"type": "spawner",
	"enabled": true,
	"loadDefault": true,
	"mobCountMin": 2,
	"ignoreBiomes": false,
	"ignoreLightLevel": false,
	"conditions": [
		{
			"type": "world",
			"dimensionIds": [
				"minecraft:the_nether",
				"minecraft:the_end"
			],
			"dimensionListType": "blacklist"
		}
	],
	"triggers": [
		{
			"type": "world",
			"chance": 0.25,
			"tickRate": 800
		}
	],
	"locations": [
		{
			"type": "random",
			"rangeMin": [32, 0, 32],
			"rangeMax": [48, 48, 48],
			"sorting": "random",
			"limit": 32,
			"solidGround": false,
			"underground": false
		}
	]
}