{
	"name": "bamstorm_skyspawner",
	"type": "spawner",
	"enabled": true,
	"loadDefault": true,
	"mobCountMin": 3,
	"ignoreDimensions": true,
	"ignoreBiomes": true,
	"ignoreLightLevel": true,
	"ignoreGroupLimit": true,
	"ignoreForgeCanSpawnEvent": true,
	"forceNoDespawn": true,
	"eventName": "bamstorm",
	"conditions": [],
	"triggers": [
		{
			"type": "player",
			"chance": 1,
			"tickRate": 100
		}
	],
	"locations": [
		{
			"type": "random",
			"rangeMin": [24, 0, 24],
			"rangeMax": [32, 48, 32],
			"sorting": "random",
			"limit": 32,
			"solidGround": false
		}
	],
	"mobSpawns": [
		{
			"mobId": "lycanitesmobs:zephyr",
			"weight": 8
		},
		{
			"mobId": "lycanitesmobs:raidra",
			"weight": 8
		},
		{
			"mobId": "lycanitesmobs:tremor",
			"weight": 1
		},
		{
			"mobId": "lycanitesmobs:manticore",
			"weight": 8
		}
	]
}